<?xml version="1.0" encoding="UTF-8" standalone="no"?>
<graphml xmlns="http://graphml.graphdrawing.org/xmlns" xmlns:xsi="http://www.w3.org/2001/XMLSchema-instance" xmlns:y="http://www.yworks.com/xml/graphml" xmlns:yed="http://www.yworks.com/xml/yed/3" xsi:schemaLocation="http://graphml.graphdrawing.org/xmlns http://www.yworks.com/xml/schema/graphml/1.1/ygraphml.xsd">
  <!--Created by yFiles for Java 2.8-->
  <key for="graphml" id="d0" yfiles.type="resources"/>
  <key for="port" id="d1" yfiles.type="portgraphics"/>
  <key for="port" id="d2" yfiles.type="portgeometry"/>
  <key for="port" id="d3" yfiles.type="portuserdata"/>
  <key attr.name="url" attr.type="string" for="node" id="d4"/>
  <key attr.name="description" attr.type="string" for="node" id="d5"/>
  <key for="node" id="d6" yfiles.type="nodegraphics"/>
  <key attr.name="Description" attr.type="string" for="graph" id="d7"/>
  <key attr.name="url" attr.type="string" for="edge" id="d8"/>
  <key attr.name="description" attr.type="string" for="edge" id="d9"/>
  <key for="edge" id="d10" yfiles.type="edgegraphics"/>
  <graph edgedefault="directed" id="G">
    <data key="d7"/>
    <node id="n0" yfiles.foldertype="group">
      <data key="d4"><![CDATA[https://svn.csail.mit.edu/envoy/software/collection/arm-renderer/src/arm_loopback/]]></data>
      <data key="d5"/>
      <data key="d6">
        <y:ProxyAutoBoundsNode>
          <y:Realizers active="0">
            <y:GroupNode>
              <y:Geometry height="203.17456197127984" width="457.2550649999996" x="605.0" y="-386.00649817708336"/>
              <y:Fill color="#F2F0D8" transparent="false"/>
              <y:BorderStyle color="#000000" type="line" width="1.0"/>
              <y:NodeLabel alignment="right" autoSizePolicy="node_width" backgroundColor="#B7B69E" borderDistance="0.0" fontFamily="Dialog" fontSize="15" fontStyle="plain" hasLineColor="false" height="22.37646484375" modelName="internal" modelPosition="t" textColor="#000000" visible="true" width="457.2550649999996" x="0.0" y="0.0">arm-loopback (arm simulator)</y:NodeLabel>
              <y:Shape type="rectangle"/>
              <y:DropShadow color="#D2D2D2" offsetX="4" offsetY="4"/>
              <y:State closed="false" innerGraphDisplayEnabled="false"/>
              <y:Insets bottom="15" bottomF="15.0" left="15" leftF="15.0" right="15" rightF="15.0" top="15" topF="15.0"/>
              <y:BorderInsets bottom="20" bottomF="20.0" left="0" leftF="0.0" right="9" rightF="9.255064999999604" top="1" topF="1.024362174404871"/>
            </y:GroupNode>
            <y:GroupNode>
              <y:Geometry height="50.0" width="50.0" x="658.25" y="-21.056700000000035"/>
              <y:Fill color="#F2F0D8" transparent="false"/>
              <y:BorderStyle color="#000000" type="line" width="1.0"/>
              <y:NodeLabel alignment="right" autoSizePolicy="node_width" backgroundColor="#B7B69E" borderDistance="0.0" fontFamily="Dialog" fontSize="15" fontStyle="plain" hasLineColor="false" height="22.37646484375" modelName="internal" modelPosition="t" textColor="#000000" visible="true" width="50.0" x="0.0" y="0.0">3</y:NodeLabel>
              <y:Shape type="rectangle"/>
              <y:DropShadow color="#D2D2D2" offsetX="4" offsetY="4"/>
              <y:State closed="false" innerGraphDisplayEnabled="false"/>
              <y:Insets bottom="15" bottomF="15.0" left="15" leftF="15.0" right="15" rightF="15.0" top="15" topF="15.0"/>
              <y:BorderInsets bottom="0" bottomF="0.0" left="0" leftF="0.0" right="0" rightF="0.0" top="0" topF="0.0"/>
            </y:GroupNode>
          </y:Realizers>
        </y:ProxyAutoBoundsNode>
      </data>
      <graph edgedefault="directed" id="n0:">
        <node id="n0::n0" yfiles.foldertype="group">
          <data key="d4"/>
          <data key="d5"/>
          <data key="d6">
            <y:ProxyAutoBoundsNode>
              <y:Realizers active="0">
                <y:GroupNode>
                  <y:Geometry height="125.77373495312497" width="175.0920605624999" x="620.0" y="-347.6056711589285"/>
                  <y:Fill color="#F2F0D8" transparent="false"/>
                  <y:BorderStyle color="#000000" type="line" width="1.0"/>
                  <y:NodeLabel alignment="right" autoSizePolicy="node_width" backgroundColor="#3366FF" borderDistance="0.0" fontFamily="Dialog" fontSize="15" fontStyle="plain" hasLineColor="false" height="22.37646484375" modelName="internal" modelPosition="t" textColor="#000000" visible="true" width="175.0920605624999" x="0.0" y="0.0">LCM</y:NodeLabel>
                  <y:Shape type="rectangle"/>
                  <y:DropShadow color="#D2D2D2" offsetX="4" offsetY="4"/>
                  <y:State closed="false" innerGraphDisplayEnabled="false"/>
                  <y:Insets bottom="15" bottomF="15.0" left="15" leftF="15.0" right="15" rightF="15.0" top="15" topF="15.0"/>
                  <y:BorderInsets bottom="0" bottomF="0.0" left="0" leftF="0.0" right="2" rightF="2.09206056249991" top="0" topF="0.0"/>
                </y:GroupNode>
                <y:GroupNode>
                  <y:Geometry height="50.0" width="50.0" x="377.0" y="-50.37939453125"/>
                  <y:Fill color="#F2F0D8" transparent="false"/>
                  <y:BorderStyle color="#000000" type="line" width="1.0"/>
                  <y:NodeLabel alignment="right" autoSizePolicy="node_width" backgroundColor="#B7B69E" borderDistance="0.0" fontFamily="Dialog" fontSize="15" fontStyle="plain" hasLineColor="false" height="22.37646484375" modelName="internal" modelPosition="t" textColor="#000000" visible="true" width="50.0" x="0.0" y="0.0">3</y:NodeLabel>
                  <y:Shape type="rectangle"/>
                  <y:DropShadow color="#D2D2D2" offsetX="4" offsetY="4"/>
                  <y:State closed="false" innerGraphDisplayEnabled="false"/>
                  <y:Insets bottom="15" bottomF="15.0" left="15" leftF="15.0" right="15" rightF="15.0" top="15" topF="15.0"/>
                  <y:BorderInsets bottom="0" bottomF="0.0" left="0" leftF="0.0" right="0" rightF="0.0" top="0" topF="0.0"/>
                </y:GroupNode>
              </y:Realizers>
            </y:ProxyAutoBoundsNode>
          </data>
          <graph edgedefault="directed" id="n0::n0:">
            <node id="n0::n0::n0">
              <data key="d4"><![CDATA[https://svn.csail.mit.edu/envoy/software/collection/arm-renderer/lcmtypes/dynamixel_cmd_list_t.lcm]]></data>
              <data key="d5"/>
              <data key="d6">
                <y:ShapeNode>
                  <y:Geometry height="30.0" width="143.0" x="635.0" y="-310.2292063151785"/>
                  <y:Fill color="#00FFFF" transparent="false"/>
                  <y:BorderStyle color="#000000" type="line" width="1.0"/>
                  <y:NodeLabel alignment="center" autoSizePolicy="content" fontFamily="Dialog" fontSize="12" fontStyle="plain" hasBackgroundColor="false" hasLineColor="false" height="18.701171875" modelName="internal" modelPosition="c" textColor="#000000" visible="true" width="118.71484375" x="12.142578125" y="5.6494140625">dynamixel_cmd_list_t</y:NodeLabel>
                  <y:Shape type="rectangle"/>
                </y:ShapeNode>
              </data>
            </node>
            <node id="n0::n0::n1">
              <data key="d4"><![CDATA[https://svn.csail.mit.edu/envoy/software/collection/arm-renderer/lcmtypes/dynamixel_status_list_t.lcm]]></data>
              <data key="d5"/>
              <data key="d6">
                <y:ShapeNode>
                  <y:Geometry height="30.0" width="143.0" x="635.0" y="-266.8319362058035"/>
                  <y:Fill color="#800080" transparent="false"/>
                  <y:BorderStyle color="#000000" type="line" width="1.0"/>
                  <y:NodeLabel alignment="center" autoSizePolicy="content" fontFamily="Dialog" fontSize="12" fontStyle="plain" hasBackgroundColor="false" hasLineColor="false" height="18.701171875" modelName="internal" modelPosition="c" textColor="#000000" visible="true" width="128.060546875" x="7.4697265625" y="5.6494140625">dynamixel_status_list_t</y:NodeLabel>
                  <y:Shape type="rectangle"/>
                </y:ShapeNode>
              </data>
            </node>
          </graph>
        </node>
        <node id="n0::n1">
          <data key="d4"><![CDATA[https://svn.csail.mit.edu/envoy/software/collection/arm-renderer/src/arm_loopback/arm-loopback.c]]></data>
          <data key="d5"/>
          <data key="d6">
            <y:ShapeNode>
              <y:Geometry height="30.0" width="103.0" x="935.0" y="-299.718803682366"/>
              <y:Fill color="#FFCC00" transparent="false"/>
              <y:BorderStyle color="#000000" type="line" width="1.0"/>
              <y:NodeLabel alignment="center" autoSizePolicy="content" fontFamily="Dialog" fontSize="12" fontStyle="plain" hasBackgroundColor="false" hasLineColor="false" height="18.701171875" modelName="internal" modelPosition="c" textColor="#000000" visible="true" width="76.697265625" x="13.1513671875" y="5.6494140625">arm-loopback</y:NodeLabel>
              <y:Shape type="rectangle"/>
            </y:ShapeNode>
          </data>
        </node>
      </graph>
    </node>
    <node id="n1" yfiles.foldertype="group">
      <data key="d4"><![CDATA[https://svn.csail.mit.edu/envoy/data/cm700/]]></data>
      <data key="d5"/>
      <data key="d6">
        <y:ProxyAutoBoundsNode>
          <y:Realizers active="0">
            <y:GroupNode>
              <y:Geometry height="662.5904551168335" width="420.00789062499985" x="1224.3524609375" y="-138.37939453125"/>
              <y:Fill color="#F2F0D8" transparent="false"/>
              <y:BorderStyle color="#000000" type="line" width="1.0"/>
              <y:NodeLabel alignment="right" autoSizePolicy="node_width" backgroundColor="#B7B69E" borderDistance="0.0" fontFamily="Dialog" fontSize="15" fontStyle="plain" hasLineColor="false" height="22.37646484375" modelName="internal" modelPosition="t" textColor="#000000" visible="true" width="420.00789062499985" x="0.0" y="0.0">cm700 (MCU Code)</y:NodeLabel>
              <y:Shape type="rectangle"/>
              <y:DropShadow color="#D2D2D2" offsetX="4" offsetY="4"/>
              <y:State closed="false" innerGraphDisplayEnabled="false"/>
              <y:Insets bottom="15" bottomF="15.0" left="15" leftF="15.0" right="15" rightF="15.0" top="15" topF="15.0"/>
              <y:BorderInsets bottom="315" bottomF="314.80304971311335" left="7" leftF="7.327539062499909" right="14" rightF="13.720351562499673" top="263" topF="263.3779296875"/>
            </y:GroupNode>
            <y:GroupNode>
              <y:Geometry height="50.0" width="50.0" x="1250.75" y="71.5"/>
              <y:Fill color="#F2F0D8" transparent="false"/>
              <y:BorderStyle color="#000000" type="line" width="1.0"/>
              <y:NodeLabel alignment="right" autoSizePolicy="node_width" backgroundColor="#B7B69E" borderDistance="0.0" fontFamily="Dialog" fontSize="15" fontStyle="plain" hasLineColor="false" height="22.37646484375" modelName="internal" modelPosition="t" textColor="#000000" visible="true" width="50.0" x="0.0" y="0.0">3</y:NodeLabel>
              <y:Shape type="rectangle"/>
              <y:DropShadow color="#D2D2D2" offsetX="4" offsetY="4"/>
              <y:State closed="false" innerGraphDisplayEnabled="false"/>
              <y:Insets bottom="15" bottomF="15.0" left="15" leftF="15.0" right="15" rightF="15.0" top="15" topF="15.0"/>
              <y:BorderInsets bottom="0" bottomF="0.0" left="0" leftF="0.0" right="0" rightF="0.0" top="0" topF="0.0"/>
            </y:GroupNode>
          </y:Realizers>
        </y:ProxyAutoBoundsNode>
      </data>
      <graph edgedefault="directed" id="n1:">
        <node id="n1::n0">
          <data key="d4"><![CDATA[https://svn.csail.mit.edu/envoy/data/cm700/serial_comm.h]]></data>
          <data key="d5"/>
          <data key="d6">
            <y:ShapeNode>
              <y:Geometry height="30.0" width="103.0" x="1246.6799999999998" y="164.40801087247013"/>
              <y:Fill color="#FFCC00" transparent="false"/>
              <y:BorderStyle color="#000000" type="line" width="1.0"/>
              <y:NodeLabel alignment="center" autoSizePolicy="content" fontFamily="Dialog" fontSize="12" fontStyle="plain" hasBackgroundColor="false" hasLineColor="false" height="18.701171875" modelName="internal" modelPosition="c" textColor="#000000" visible="true" width="68.67578125" x="17.162109375" y="5.6494140625">serial comm</y:NodeLabel>
              <y:Shape type="rectangle"/>
            </y:ShapeNode>
          </data>
        </node>
        <node id="n1::n1">
          <data key="d4"><![CDATA[https://svn.csail.mit.edu/envoy/data/cm700/main.c]]></data>
          <data key="d5"/>
          <data key="d6">
            <y:ShapeNode>
              <y:Geometry height="30.0" width="72.0" x="1389.1490332031249" y="162.375"/>
              <y:Fill color="#FFCC00" transparent="false"/>
              <y:BorderStyle color="#000000" type="line" width="1.0"/>
              <y:NodeLabel alignment="center" autoSizePolicy="content" fontFamily="Dialog" fontSize="12" fontStyle="plain" hasBackgroundColor="false" hasLineColor="false" height="18.701171875" modelName="internal" modelPosition="c" textColor="#000000" visible="true" width="30.009765625" x="20.9951171875" y="5.6494140625">main</y:NodeLabel>
              <y:Shape type="rectangle"/>
            </y:ShapeNode>
          </data>
        </node>
        <node id="n1::n2">
          <data key="d4"><![CDATA[https://svn.csail.mit.edu/envoy/data/cm700/servo_controller.h]]></data>
          <data key="d5"/>
          <data key="d6">
            <y:ShapeNode>
              <y:Geometry height="30.0" width="103.0" x="1512.64" y="162.375"/>
              <y:Fill color="#FFCC00" transparent="false"/>
              <y:BorderStyle color="#000000" type="line" width="1.0"/>
              <y:NodeLabel alignment="center" autoSizePolicy="content" fontFamily="Dialog" fontSize="12" fontStyle="plain" hasBackgroundColor="false" hasLineColor="false" height="18.701171875" modelName="internal" modelPosition="c" textColor="#000000" visible="true" width="89.37109375" x="6.814453125" y="5.6494140625">servo_controller</y:NodeLabel>
              <y:Shape type="rectangle"/>
            </y:ShapeNode>
          </data>
        </node>
      </graph>
    </node>
    <node id="n2" yfiles.foldertype="group">
      <data key="d4"><![CDATA[https://svn.csail.mit.edu/rrg_pods/drivers/dynamixel/]]></data>
      <data key="d5"/>
      <data key="d6">
        <y:ProxyAutoBoundsNode>
          <y:Realizers active="0">
            <y:GroupNode>
              <y:Geometry height="662.5904551168335" width="450.2550649999996" x="612.0" y="-138.37939453125"/>
              <y:Fill color="#F2F0D8" transparent="false"/>
              <y:BorderStyle color="#000000" type="line" width="1.0"/>
              <y:NodeLabel alignment="right" autoSizePolicy="node_width" backgroundColor="#B7B69E" borderDistance="0.0" fontFamily="Dialog" fontSize="15" fontStyle="plain" hasLineColor="false" height="22.37646484375" modelName="internal" modelPosition="t" textColor="#000000" visible="true" width="450.2550649999996" x="0.0" y="0.0">dyanmixel_cm700 (driver)</y:NodeLabel>
              <y:Shape type="rectangle"/>
              <y:DropShadow color="#D2D2D2" offsetX="4" offsetY="4"/>
              <y:State closed="false" innerGraphDisplayEnabled="false"/>
              <y:Insets bottom="15" bottomF="15.0" left="15" leftF="15.0" right="15" rightF="15.0" top="15" topF="15.0"/>
              <y:BorderInsets bottom="160" bottomF="160.0049525855835" left="0" leftF="0.0" right="56" rightF="56.255064999999604" top="184" topF="184.41094055997013"/>
            </y:GroupNode>
            <y:GroupNode>
              <y:Geometry height="50.0" width="50.0" x="930.0" y="286.0"/>
              <y:Fill color="#F2F0D8" transparent="false"/>
              <y:BorderStyle color="#000000" type="line" width="1.0"/>
              <y:NodeLabel alignment="right" autoSizePolicy="node_width" backgroundColor="#B7B69E" borderDistance="0.0" fontFamily="Dialog" fontSize="15" fontStyle="plain" hasLineColor="false" height="22.37646484375" modelName="internal" modelPosition="t" textColor="#000000" visible="true" width="50.0" x="0.0" y="0.0">3</y:NodeLabel>
              <y:Shape type="rectangle"/>
              <y:DropShadow color="#D2D2D2" offsetX="4" offsetY="4"/>
              <y:State closed="false" innerGraphDisplayEnabled="false"/>
              <y:Insets bottom="15" bottomF="15.0" left="15" leftF="15.0" right="15" rightF="15.0" top="15" topF="15.0"/>
              <y:BorderInsets bottom="0" bottomF="0.0" left="0" leftF="0.0" right="0" rightF="0.0" top="0" topF="0.0"/>
            </y:GroupNode>
          </y:Realizers>
        </y:ProxyAutoBoundsNode>
      </data>
      <graph edgedefault="directed" id="n2:">
        <node id="n2::n0" yfiles.foldertype="group">
          <data key="d4"/>
          <data key="d5"/>
          <data key="d6">
            <y:ProxyAutoBoundsNode>
              <y:Realizers active="0">
                <y:GroupNode>
                  <y:Geometry height="125.77373495312497" width="175.0920605624999" x="627.0" y="219.432373046875"/>
                  <y:Fill color="#F2F0D8" transparent="false"/>
                  <y:BorderStyle color="#000000" type="line" width="1.0"/>
                  <y:NodeLabel alignment="right" autoSizePolicy="node_width" backgroundColor="#3366FF" borderDistance="0.0" fontFamily="Dialog" fontSize="15" fontStyle="plain" hasLineColor="false" height="22.37646484375" modelName="internal" modelPosition="t" textColor="#000000" visible="true" width="175.0920605624999" x="0.0" y="0.0">LCM</y:NodeLabel>
                  <y:Shape type="rectangle"/>
                  <y:DropShadow color="#D2D2D2" offsetX="4" offsetY="4"/>
                  <y:State closed="false" innerGraphDisplayEnabled="false"/>
                  <y:Insets bottom="15" bottomF="15.0" left="15" leftF="15.0" right="15" rightF="15.0" top="15" topF="15.0"/>
                  <y:BorderInsets bottom="0" bottomF="0.0" left="0" leftF="0.0" right="2" rightF="2.09206056249991" top="0" topF="0.0"/>
                </y:GroupNode>
                <y:GroupNode>
                  <y:Geometry height="50.0" width="50.0" x="377.0" y="-50.37939453125"/>
                  <y:Fill color="#F2F0D8" transparent="false"/>
                  <y:BorderStyle color="#000000" type="line" width="1.0"/>
                  <y:NodeLabel alignment="right" autoSizePolicy="node_width" backgroundColor="#B7B69E" borderDistance="0.0" fontFamily="Dialog" fontSize="15" fontStyle="plain" hasLineColor="false" height="22.37646484375" modelName="internal" modelPosition="t" textColor="#000000" visible="true" width="50.0" x="0.0" y="0.0">3</y:NodeLabel>
                  <y:Shape type="rectangle"/>
                  <y:DropShadow color="#D2D2D2" offsetX="4" offsetY="4"/>
                  <y:State closed="false" innerGraphDisplayEnabled="false"/>
                  <y:Insets bottom="15" bottomF="15.0" left="15" leftF="15.0" right="15" rightF="15.0" top="15" topF="15.0"/>
                  <y:BorderInsets bottom="0" bottomF="0.0" left="0" leftF="0.0" right="0" rightF="0.0" top="0" topF="0.0"/>
                </y:GroupNode>
              </y:Realizers>
            </y:ProxyAutoBoundsNode>
          </data>
          <graph edgedefault="directed" id="n2::n0:">
            <node id="n2::n0::n0">
              <data key="d4"><![CDATA[https://svn.csail.mit.edu/envoy/software/collection/arm-renderer/lcmtypes/dynamixel_cmd_list_t.lcm]]></data>
              <data key="d5"/>
              <data key="d6">
                <y:ShapeNode>
                  <y:Geometry height="30.0" width="143.0" x="642.0" y="256.808837890625"/>
                  <y:Fill color="#00FFFF" transparent="false"/>
                  <y:BorderStyle color="#000000" type="line" width="1.0"/>
                  <y:NodeLabel alignment="center" autoSizePolicy="content" fontFamily="Dialog" fontSize="12" fontStyle="plain" hasBackgroundColor="false" hasLineColor="false" height="18.701171875" modelName="internal" modelPosition="c" textColor="#000000" visible="true" width="118.71484375" x="12.142578125" y="5.6494140625">dynamixel_cmd_list_t</y:NodeLabel>
                  <y:Shape type="rectangle"/>
                </y:ShapeNode>
              </data>
            </node>
            <node id="n2::n0::n1">
              <data key="d4"><![CDATA[https://svn.csail.mit.edu/envoy/software/collection/arm-renderer/lcmtypes/dynamixel_status_list_t.lcm]]></data>
              <data key="d5"/>
              <data key="d6">
                <y:ShapeNode>
                  <y:Geometry height="30.0" width="143.0" x="642.0" y="300.206108"/>
                  <y:Fill color="#800080" transparent="false"/>
                  <y:BorderStyle color="#000000" type="line" width="1.0"/>
                  <y:NodeLabel alignment="center" autoSizePolicy="content" fontFamily="Dialog" fontSize="12" fontStyle="plain" hasBackgroundColor="false" hasLineColor="false" height="18.701171875" modelName="internal" modelPosition="c" textColor="#000000" visible="true" width="128.060546875" x="7.4697265625" y="5.6494140625">dynamixel_status_list_t</y:NodeLabel>
                  <y:Shape type="rectangle"/>
                </y:ShapeNode>
              </data>
            </node>
          </graph>
        </node>
        <node id="n2::n1">
          <data key="d4"><![CDATA[https://svn.csail.mit.edu/rrg_pods/drivers/dynamixel/src/cm700.h]]></data>
          <data key="d5"/>
          <data key="d6">
            <y:ShapeNode>
              <y:Geometry height="30.0" width="56.0" x="824.5" y="164.40801087247013"/>
              <y:Fill color="#FFCC00" transparent="false"/>
              <y:BorderStyle color="#000000" type="line" width="1.0"/>
              <y:NodeLabel alignment="center" autoSizePolicy="content" fontFamily="Dialog" fontSize="12" fontStyle="plain" hasBackgroundColor="false" hasLineColor="false" height="18.701171875" modelName="internal" modelPosition="c" textColor="#000000" visible="true" width="40.017578125" x="7.9912109375" y="5.6494140625">cm700</y:NodeLabel>
              <y:Shape type="rectangle"/>
            </y:ShapeNode>
          </data>
        </node>
        <node id="n2::n2">
          <data key="d4"><![CDATA[https://svn.csail.mit.edu/rrg_pods/drivers/dynamixel/src/main.c]]></data>
          <data key="d5"/>
          <data key="d6">
            <y:ShapeNode>
              <y:Geometry height="30.0" width="56.0" x="824.5" y="83.40801087247013"/>
              <y:Fill color="#FFCC00" transparent="false"/>
              <y:BorderStyle color="#000000" type="line" width="1.0"/>
              <y:NodeLabel alignment="center" autoSizePolicy="content" fontFamily="Dialog" fontSize="12" fontStyle="plain" hasBackgroundColor="false" hasLineColor="false" height="18.701171875" modelName="internal" modelPosition="c" textColor="#000000" visible="true" width="30.009765625" x="12.9951171875" y="5.6494140625">main</y:NodeLabel>
              <y:Shape type="rectangle"/>
            </y:ShapeNode>
          </data>
        </node>
        <node id="n2::n3">
          <data key="d4"><![CDATA[https://svn.csail.mit.edu/rrg_pods/drivers/dynamixel/src/serial.h]]></data>
          <data key="d5"/>
          <data key="d6">
            <y:ShapeNode>
              <y:Geometry height="30.0" width="56.0" x="935.0" y="164.40801087247013"/>
              <y:Fill color="#FFCC00" transparent="false"/>
              <y:BorderStyle color="#000000" type="line" width="1.0"/>
              <y:NodeLabel alignment="center" autoSizePolicy="content" fontFamily="Dialog" fontSize="12" fontStyle="plain" hasBackgroundColor="false" hasLineColor="false" height="18.701171875" modelName="internal" modelPosition="c" textColor="#000000" visible="true" width="32.67578125" x="11.662109375" y="5.6494140625">serial</y:NodeLabel>
              <y:Shape type="rectangle"/>
            </y:ShapeNode>
          </data>
        </node>
      </graph>
    </node>
    <node id="n3" yfiles.foldertype="group">
      <data key="d4"><![CDATA[https://svn.csail.mit.edu/envoy/software/collection/arm-renderer/]]></data>
      <data key="d6">
        <y:ProxyAutoBoundsNode>
          <y:Realizers active="0">
            <y:GroupNode>
              <y:Geometry height="662.5904551168335" width="827.9124999999999" x="-238.91249999999997" y="-138.37939453125"/>
              <y:Fill color="#F2F0D8" transparent="false"/>
              <y:BorderStyle color="#000000" type="line" width="1.0"/>
              <y:NodeLabel alignment="right" autoSizePolicy="node_width" backgroundColor="#B7B69E" borderDistance="0.0" fontFamily="Dialog" fontSize="15" fontStyle="plain" hasLineColor="false" height="22.37646484375" modelName="internal" modelPosition="t" textColor="#000000" visible="true" width="827.9124999999999" x="0.0" y="0.0">arm-renderer (arm controller and viewer)</y:NodeLabel>
              <y:Shape type="rectangle"/>
              <y:DropShadow color="#D2D2D2" offsetX="4" offsetY="4"/>
              <y:State closed="false" innerGraphDisplayEnabled="false"/>
              <y:Insets bottom="15" bottomF="15.0" left="15" leftF="15.0" right="15" rightF="15.0" top="15" topF="15.0"/>
              <y:BorderInsets bottom="78" bottomF="78.26776058558352" left="0" leftF="0.0" right="0" rightF="0.0" top="11" topF="10.946229687499965"/>
            </y:GroupNode>
            <y:GroupNode>
              <y:Geometry height="50.0" width="50.0" x="326.0" y="412.0"/>
              <y:Fill color="#F2F0D8" transparent="false"/>
              <y:BorderStyle color="#000000" type="line" width="1.0"/>
              <y:NodeLabel alignment="right" autoSizePolicy="node_width" backgroundColor="#B7B69E" borderDistance="0.0" fontFamily="Dialog" fontSize="15" fontStyle="plain" hasLineColor="false" height="22.37646484375" modelName="internal" modelPosition="t" textColor="#000000" visible="true" width="50.0" x="0.0" y="0.0">3</y:NodeLabel>
              <y:Shape type="rectangle"/>
              <y:DropShadow color="#D2D2D2" offsetX="4" offsetY="4"/>
              <y:State closed="false" innerGraphDisplayEnabled="false"/>
              <y:Insets bottom="15" bottomF="15.0" left="15" leftF="15.0" right="15" rightF="15.0" top="15" topF="15.0"/>
              <y:BorderInsets bottom="0" bottomF="0.0" left="0" leftF="0.0" right="0" rightF="0.0" top="0" topF="0.0"/>
            </y:GroupNode>
          </y:Realizers>
        </y:ProxyAutoBoundsNode>
      </data>
      <graph edgedefault="directed" id="n3:">
        <node id="n3::n0" yfiles.foldertype="folder">
          <data key="d4"/>
          <data key="d5"/>
          <data key="d6">
            <y:ProxyAutoBoundsNode>
              <y:Realizers active="1">
                <y:GroupNode>
                  <y:Geometry height="125.77373495312497" width="409.7734375" x="-194.3125" y="376.94329999999997"/>
                  <y:Fill color="#F2F0D8" transparent="false"/>
                  <y:BorderStyle color="#000000" type="line" width="1.0"/>
                  <y:NodeLabel alignment="right" autoSizePolicy="node_width" backgroundColor="#B7B69E" borderDistance="0.0" fontFamily="Dialog" fontSize="15" fontStyle="plain" hasLineColor="false" height="22.37646484375" modelName="internal" modelPosition="t" textColor="#000000" visible="true" width="409.7734375" x="0.0" y="0.0">utility files (used throughout arm-renderer)</y:NodeLabel>
                  <y:Shape type="rectangle"/>
                  <y:DropShadow color="#D2D2D2" offsetX="4" offsetY="4"/>
                  <y:State closed="false" innerGraphDisplayEnabled="false"/>
                  <y:Insets bottom="15" bottomF="15.0" left="15" leftF="15.0" right="15" rightF="15.0" top="15" topF="15.0"/>
                  <y:BorderInsets bottom="3" bottomF="3.3266222384580715" left="7" leftF="7.185546874999972" right="8" rightF="7.587890624999858" top="0" topF="1.1368683772161603E-13"/>
                </y:GroupNode>
                <y:GroupNode>
                  <y:Geometry height="50.0" width="318.0" x="-108.2265625" y="376.94329999999997"/>
                  <y:Fill color="#F2F0D8" transparent="false"/>
                  <y:BorderStyle color="#000000" type="line" width="1.0"/>
                  <y:NodeLabel alignment="right" autoSizePolicy="node_width" backgroundColor="#B7B69E" borderDistance="0.0" fontFamily="Dialog" fontSize="15" fontStyle="plain" hasLineColor="false" height="22.37646484375" modelName="internal" modelPosition="t" textColor="#000000" visible="true" width="318.0" x="0.0" y="0.0">utility files used throughout arm-renderer</y:NodeLabel>
                  <y:Shape type="rectangle"/>
                  <y:DropShadow color="#D2D2D2" offsetX="4" offsetY="4"/>
                  <y:State closed="true" innerGraphDisplayEnabled="false"/>
                  <y:Insets bottom="15" bottomF="15.0" left="15" leftF="15.0" right="15" rightF="15.0" top="15" topF="15.0"/>
                  <y:BorderInsets bottom="0" bottomF="0.0" left="0" leftF="0.0" right="0" rightF="0.0" top="0" topF="0.0"/>
                </y:GroupNode>
              </y:Realizers>
            </y:ProxyAutoBoundsNode>
          </data>
          <graph edgedefault="directed" id="n3::n0:">
            <node id="n3::n0::n0">
              <data key="d4"><![CDATA[https://svn.csail.mit.edu/envoy/software/collection/arm-renderer/src/list.h]]></data>
              <data key="d5"/>
              <data key="d6">
                <y:ShapeNode>
                  <y:Geometry height="30.0" width="112.00000000000006" x="-172.12695312500003" y="414.3197648437501"/>
                  <y:Fill color="#FFCC00" transparent="false"/>
                  <y:BorderStyle color="#000000" type="line" width="1.0"/>
                  <y:NodeLabel alignment="center" autoSizePolicy="content" fontFamily="Dialog" fontSize="12" fontStyle="plain" hasBackgroundColor="false" hasLineColor="false" height="18.701171875" modelName="internal" modelPosition="c" textColor="#000000" visible="true" width="18.666015625" x="46.66699218750003" y="5.6494140625">list</y:NodeLabel>
                  <y:Shape type="rectangle"/>
                </y:ShapeNode>
              </data>
            </node>
            <node id="n3::n0::n1">
              <data key="d4"><![CDATA[https://svn.csail.mit.edu/envoy/software/collection/arm-renderer/src/drawing_utility.h]]></data>
              <data key="d5"/>
              <data key="d6">
                <y:ShapeNode>
                  <y:Geometry height="30.0" width="112.00000000000006" x="-45.62695312499997" y="414.3197648437501"/>
                  <y:Fill color="#FFCC00" transparent="false"/>
                  <y:BorderStyle color="#000000" type="line" width="1.0"/>
                  <y:NodeLabel alignment="center" autoSizePolicy="content" fontFamily="Dialog" fontSize="12" fontStyle="plain" hasBackgroundColor="false" hasLineColor="false" height="18.701171875" modelName="internal" modelPosition="c" textColor="#000000" visible="true" width="89.376953125" x="11.311523437500028" y="5.6494140625">drawing_utilities</y:NodeLabel>
                  <y:Shape type="rectangle"/>
                </y:ShapeNode>
              </data>
            </node>
            <node id="n3::n0::n2">
              <data key="d5"/>
              <data key="d6">
                <y:ShapeNode>
                  <y:Geometry height="30.0" width="112.00000000000006" x="-45.62695312499997" y="454.39041271466687"/>
                  <y:Fill color="#FFCC00" transparent="false"/>
                  <y:BorderStyle color="#000000" type="line" width="1.0"/>
                  <y:NodeLabel alignment="center" autoSizePolicy="content" fontFamily="Dialog" fontSize="12" fontStyle="plain" hasBackgroundColor="false" hasLineColor="false" height="18.701171875" modelName="internal" modelPosition="c" textColor="#000000" visible="true" width="72.021484375" x="19.98925781250003" y="5.6494140625">robot-frames</y:NodeLabel>
                  <y:Shape type="rectangle"/>
                </y:ShapeNode>
              </data>
            </node>
            <node id="n3::n0::n3">
              <data key="d5"/>
              <data key="d6">
                <y:ShapeNode>
                  <y:Geometry height="30.0" width="112.0" x="80.87304687500009" y="414.31976484375014"/>
                  <y:Fill color="#FFCC00" transparent="false"/>
                  <y:BorderStyle color="#000000" type="line" width="1.0"/>
                  <y:NodeLabel alignment="center" autoSizePolicy="content" fontFamily="Dialog" fontSize="12" fontStyle="plain" hasBackgroundColor="false" hasLineColor="false" height="18.701171875" modelName="internal" modelPosition="c" textColor="#000000" visible="true" width="105.396484375" x="3.3017578125" y="5.6494140625">sensor_conditioner</y:NodeLabel>
                  <y:Shape type="rectangle"/>
                </y:ShapeNode>
              </data>
            </node>
            <node id="n3::n0::n4">
              <data key="d5"/>
              <data key="d6">
                <y:ShapeNode>
                  <y:Geometry height="30.0" width="112.0" x="-172.12695312499997" y="454.39041271466675"/>
                  <y:Fill color="#FFCC00" transparent="false"/>
                  <y:BorderStyle color="#000000" type="line" width="1.0"/>
                  <y:NodeLabel alignment="center" autoSizePolicy="content" fontFamily="Dialog" fontSize="12" fontStyle="plain" hasBackgroundColor="false" hasLineColor="false" height="18.701171875" modelName="internal" modelPosition="c" textColor="#000000" visible="true" width="95.37109375" x="8.314453125" y="5.6494140625">sensor_list_utility</y:NodeLabel>
                  <y:Shape type="rectangle"/>
                </y:ShapeNode>
              </data>
            </node>
            <node id="n3::n0::n5">
              <data key="d4"><![CDATA[https://svn.csail.mit.edu/envoy/software/collection/arm-renderer/src/torque-controller.h]]></data>
              <data key="d5"/>
              <data key="d6">
                <y:ShapeNode>
                  <y:Geometry height="30.0" width="112.00000000000011" x="80.87304687500003" y="454.39041271466687"/>
                  <y:Fill color="#FFCC00" transparent="false"/>
                  <y:BorderStyle color="#000000" type="line" width="1.0"/>
                  <y:NodeLabel alignment="center" autoSizePolicy="content" fontFamily="Dialog" fontSize="12" fontStyle="plain" hasBackgroundColor="false" hasLineColor="false" height="18.701171875" modelName="internal" modelPosition="c" textColor="#000000" visible="true" width="94.052734375" x="8.973632812500057" y="5.6494140625">torque_controller</y:NodeLabel>
                  <y:Shape type="rectangle"/>
                </y:ShapeNode>
              </data>
            </node>
          </graph>
        </node>
        <node id="n3::n1" yfiles.foldertype="folder">
          <data key="d4"><![CDATA[https://svn.csail.mit.edu/envoy/software/collection/arm-renderer/src/sensor_renderer/]]></data>
          <data key="d5"/>
          <data key="d6">
            <y:ProxyAutoBoundsNode>
              <y:Realizers active="1">
                <y:GroupNode>
                  <y:Geometry height="82.37646484375003" width="457.25506499999966" x="-108.2265625" y="188.6611545375834"/>
                  <y:Fill color="#F2F0D8" transparent="false"/>
                  <y:BorderStyle color="#000000" type="line" width="1.0"/>
                  <y:NodeLabel alignment="right" autoSizePolicy="node_width" backgroundColor="#B7B69E" borderDistance="0.0" fontFamily="Dialog" fontSize="15" fontStyle="plain" hasLineColor="false" height="22.37646484375" modelName="internal" modelPosition="t" textColor="#000000" visible="true" width="457.25506499999966" x="0.0" y="0.0">Sensor Renderer</y:NodeLabel>
                  <y:Shape type="rectangle"/>
                  <y:DropShadow color="#D2D2D2" offsetX="4" offsetY="4"/>
                  <y:State closed="false" innerGraphDisplayEnabled="false"/>
                  <y:Insets bottom="15" bottomF="15.0" left="15" leftF="15.0" right="15" rightF="15.0" top="15" topF="15.0"/>
                  <y:BorderInsets bottom="6" bottomF="5.600000000000023" left="0" leftF="0.0" right="41" rightF="41.255064999999774" top="0" topF="0.0"/>
                </y:GroupNode>
                <y:GroupNode>
                  <y:Geometry height="50.0" width="318.0" x="-108.2265625" y="188.6611545375834"/>
                  <y:Fill color="#F2F0D8" transparent="false"/>
                  <y:BorderStyle color="#000000" type="line" width="1.0"/>
                  <y:NodeLabel alignment="right" autoSizePolicy="node_width" backgroundColor="#B7B69E" borderDistance="0.0" fontFamily="Dialog" fontSize="15" fontStyle="plain" hasLineColor="false" height="22.37646484375" modelName="internal" modelPosition="t" textColor="#000000" visible="true" width="318.0" x="0.0" y="0.0">Sensor Renderer</y:NodeLabel>
                  <y:Shape type="rectangle"/>
                  <y:DropShadow color="#D2D2D2" offsetX="4" offsetY="4"/>
                  <y:State closed="true" innerGraphDisplayEnabled="false"/>
                  <y:Insets bottom="15" bottomF="15.0" left="15" leftF="15.0" right="15" rightF="15.0" top="15" topF="15.0"/>
                  <y:BorderInsets bottom="0" bottomF="0.0" left="0" leftF="0.0" right="0" rightF="0.0" top="0" topF="0.0"/>
                </y:GroupNode>
              </y:Realizers>
            </y:ProxyAutoBoundsNode>
          </data>
          <graph edgedefault="directed" id="n3::n1:">
            <node id="n3::n1::n0">
              <data key="d4"><![CDATA[https://svn.csail.mit.edu/envoy/software/collection/arm-renderer/src/sensor_renderer/robot-arm-sensor-renderer.h]]></data>
              <data key="d5"/>
              <data key="d6">
                <y:ShapeNode>
                  <y:Geometry height="24.399999999999977" width="160.39999999999998" x="-93.2265625" y="226.0376193813334"/>
                  <y:Fill color="#FFCC00" transparent="false"/>
                  <y:BorderStyle color="#000000" type="line" width="1.0"/>
                  <y:NodeLabel alignment="center" autoSizePolicy="content" fontFamily="Dialog" fontSize="12" fontStyle="plain" hasBackgroundColor="false" hasLineColor="false" height="18.701171875" modelName="internal" modelPosition="c" textColor="#000000" visible="true" width="145.380859375" x="7.509570312499989" y="2.8494140624999886">robot-arm-sensor-renderer</y:NodeLabel>
                  <y:Shape type="rectangle"/>
                </y:ShapeNode>
              </data>
            </node>
            <node id="n3::n1::n1">
              <data key="d5"/>
              <data key="d6">
                <y:ShapeNode>
                  <y:Geometry height="24.400000000000006" width="195.5999999999999" x="97.17343749999998" y="226.0376193813334"/>
                  <y:Fill color="#FFCC00" transparent="false"/>
                  <y:BorderStyle color="#000000" type="line" width="1.0"/>
                  <y:NodeLabel alignment="center" autoSizePolicy="content" fontFamily="Dialog" fontSize="12" fontStyle="plain" hasBackgroundColor="false" hasLineColor="false" height="18.701171875" modelName="internal" modelPosition="c" textColor="#000000" visible="true" width="179.40625" x="8.096874999999955" y="2.8494140624999886">robot-arm-sensor-torque-grapher</y:NodeLabel>
                  <y:Shape type="rectangle"/>
                </y:ShapeNode>
              </data>
            </node>
            <edge id="n3::n1::e0" source="n3::n1::n0" target="n3::n1::n1">
              <data key="d9"/>
              <data key="d10">
                <y:PolyLineEdge>
                  <y:Path sx="0.0" sy="0.0" tx="0.0" ty="0.0"/>
                  <y:LineStyle color="#000000" type="line" width="1.0"/>
                  <y:Arrows source="none" target="standard"/>
                  <y:BendStyle smoothed="false"/>
                </y:PolyLineEdge>
              </data>
            </edge>
          </graph>
        </node>
        <node id="n3::n2" yfiles.foldertype="folder">
          <data key="d4"><![CDATA[https://svn.csail.mit.edu/envoy/software/collection/arm-renderer/src/command_renderer/]]></data>
          <data key="d5"/>
          <data key="d6">
            <y:ProxyAutoBoundsNode>
              <y:Realizers active="1">
                <y:GroupNode>
                  <y:Geometry height="113.17646484374995" width="644.0" x="-108.2265625" y="75.528837890625"/>
                  <y:Fill color="#F2F0D8" transparent="false"/>
                  <y:BorderStyle color="#000000" type="line" width="1.0"/>
                  <y:NodeLabel alignment="right" autoSizePolicy="node_width" backgroundColor="#B7B69E" borderDistance="0.0" fontFamily="Dialog" fontSize="15" fontStyle="plain" hasLineColor="false" height="22.37646484375" modelName="internal" modelPosition="t" textColor="#000000" visible="true" width="644.0" x="0.0" y="0.0">Forward Kinematics/Command Renderer</y:NodeLabel>
                  <y:Shape type="rectangle"/>
                  <y:DropShadow color="#D2D2D2" offsetX="4" offsetY="4"/>
                  <y:State closed="false" innerGraphDisplayEnabled="false"/>
                  <y:Insets bottom="15" bottomF="15.0" left="15" leftF="15.0" right="15" rightF="15.0" top="15" topF="15.0"/>
                  <y:BorderInsets bottom="8" bottomF="7.7999999999999545" left="0" leftF="0.0" right="202" rightF="202.0920605624999" top="0" topF="0.0"/>
                </y:GroupNode>
                <y:GroupNode>
                  <y:Geometry height="50.0" width="318.0" x="-108.2265625" y="75.528837890625"/>
                  <y:Fill color="#F2F0D8" transparent="false"/>
                  <y:BorderStyle color="#000000" type="line" width="1.0"/>
                  <y:NodeLabel alignment="right" autoSizePolicy="node_width" backgroundColor="#B7B69E" borderDistance="0.0" fontFamily="Dialog" fontSize="15" fontStyle="plain" hasLineColor="false" height="22.37646484375" modelName="internal" modelPosition="t" textColor="#000000" visible="true" width="318.0" x="0.0" y="0.0">Controller / Forward Kinematics Renderer</y:NodeLabel>
                  <y:Shape type="rectangle"/>
                  <y:DropShadow color="#D2D2D2" offsetX="4" offsetY="4"/>
                  <y:State closed="true" innerGraphDisplayEnabled="false"/>
                  <y:Insets bottom="15" bottomF="15.0" left="15" leftF="15.0" right="15" rightF="15.0" top="15" topF="15.0"/>
                  <y:BorderInsets bottom="0" bottomF="0.0" left="0" leftF="0.0" right="0" rightF="0.0" top="0" topF="0.0"/>
                </y:GroupNode>
              </y:Realizers>
            </y:ProxyAutoBoundsNode>
          </data>
          <graph edgedefault="directed" id="n3::n2:">
            <node id="n3::n2::n0">
              <data key="d4"><![CDATA[https://svn.csail.mit.edu/envoy/software/collection/arm-renderer/src/command_renderer/robot-arm-command-renderer.h]]></data>
              <data key="d5"/>
              <data key="d6">
                <y:ShapeNode>
                  <y:Geometry height="22.0" width="162.40000000000003" x="-93.2265625" y="112.905302734375"/>
                  <y:Fill color="#FFCC00" transparent="false"/>
                  <y:BorderStyle color="#000000" type="line" width="1.0"/>
                  <y:NodeLabel alignment="center" autoSizePolicy="content" fontFamily="Dialog" fontSize="12" fontStyle="plain" hasBackgroundColor="false" hasLineColor="false" height="18.701171875" modelName="internal" modelPosition="c" textColor="#000000" visible="true" width="162.05078125" x="0.17460937500001705" y="1.6494140625">robot-arm-command-renderer</y:NodeLabel>
                  <y:Shape type="rectangle"/>
                </y:ShapeNode>
              </data>
            </node>
            <node id="n3::n2::n1">
              <data key="d4"><![CDATA[https://svn.csail.mit.edu/envoy/software/collection/arm-renderer/src/command_renderer/robot-arm-command-sensor-params.h]]></data>
              <data key="d5"/>
              <data key="d6">
                <y:ShapeNode>
                  <y:Geometry height="22.0" width="200.8" x="117.88137693750008" y="112.905302734375"/>
                  <y:Fill color="#FFCC00" transparent="false"/>
                  <y:BorderStyle color="#000000" type="line" width="1.0"/>
                  <y:NodeLabel alignment="center" autoSizePolicy="content" fontFamily="Dialog" fontSize="12" fontStyle="plain" hasBackgroundColor="false" hasLineColor="false" height="18.701171875" modelName="internal" modelPosition="c" textColor="#000000" visible="true" width="196.720703125" x="2.0396484375000057" y="1.6494140625">robot-arm-command-sensor-params</y:NodeLabel>
                  <y:Shape type="rectangle"/>
                </y:ShapeNode>
              </data>
            </node>
            <node id="n3::n2::n2">
              <data key="d4"><![CDATA[https://svn.csail.mit.edu/envoy/software/collection/arm-renderer/src/command_renderer/robot-arm-command-server.h]]></data>
              <data key="d5"/>
              <data key="d6">
                <y:ShapeNode>
                  <y:Geometry height="22.0" width="200.8" x="117.88137693750008" y="143.905302734375"/>
                  <y:Fill color="#FFCC00" transparent="false"/>
                  <y:BorderStyle color="#000000" type="line" width="1.0"/>
                  <y:NodeLabel alignment="center" autoSizePolicy="content" fontFamily="Dialog" fontSize="12" fontStyle="plain" hasBackgroundColor="false" hasLineColor="false" height="18.701171875" modelName="internal" modelPosition="c" textColor="#000000" visible="true" width="150.033203125" x="25.383398437500006" y="1.6494140625">robot-arm-command-server</y:NodeLabel>
                  <y:Shape type="rectangle"/>
                </y:ShapeNode>
              </data>
            </node>
            <edge id="n3::n2::e0" source="n3::n2::n0" target="n3::n2::n1">
              <data key="d9"/>
              <data key="d10">
                <y:PolyLineEdge>
                  <y:Path sx="0.0" sy="0.0" tx="0.0" ty="0.0"/>
                  <y:LineStyle color="#000000" type="line" width="1.0"/>
                  <y:Arrows source="standard" target="standard"/>
                  <y:BendStyle smoothed="false"/>
                </y:PolyLineEdge>
              </data>
            </edge>
            <edge id="n3::n2::e1" source="n3::n2::n0" target="n3::n2::n2">
              <data key="d9"/>
              <data key="d10">
                <y:PolyLineEdge>
                  <y:Path sx="0.0" sy="0.0" tx="0.0" ty="0.0">
                    <y:Point x="-12.026562499999983" y="154.905302734375"/>
                  </y:Path>
                  <y:LineStyle color="#000000" type="line" width="1.0"/>
                  <y:Arrows source="none" target="standard"/>
                  <y:BendStyle smoothed="false"/>
                </y:PolyLineEdge>
              </data>
            </edge>
          </graph>
        </node>
        <node id="n3::n3" yfiles.foldertype="folder">
          <data key="d4"><![CDATA[https://svn.csail.mit.edu/envoy/software/collection/arm-renderer/src/ik_renderer/]]></data>
          <data key="d5"/>
          <data key="d6">
            <y:ProxyAutoBoundsNode>
              <y:Realizers active="1">
                <y:GroupNode>
                  <y:Geometry height="115.93646484375" width="614.5353124999999" x="-66.0" y="-4.939394531250002"/>
                  <y:Fill color="#F2F0D8" transparent="false"/>
                  <y:BorderStyle color="#000000" type="line" width="1.0"/>
                  <y:NodeLabel alignment="right" autoSizePolicy="node_width" backgroundColor="#B7B69E" borderDistance="0.0" fontFamily="Dialog" fontSize="15" fontStyle="plain" hasLineColor="false" height="22.37646484375" modelName="internal" modelPosition="t" textColor="#000000" visible="true" width="614.5353124999999" x="0.0" y="0.0">Inverse Kinematic Renderer</y:NodeLabel>
                  <y:Shape type="rectangle"/>
                  <y:DropShadow color="#D2D2D2" offsetX="4" offsetY="4"/>
                  <y:State closed="false" innerGraphDisplayEnabled="false"/>
                  <y:Insets bottom="15" bottomF="15.0" left="15" leftF="15.0" right="15" rightF="15.0" top="15" topF="15.0"/>
                  <y:BorderInsets bottom="0" bottomF="0.0" left="39" leftF="38.54843749999992" right="227" rightF="227.21343749999994" top="0" topF="0.0"/>
                </y:GroupNode>
                <y:GroupNode>
                  <y:Geometry height="50.0" width="318.0" x="-108.2265625" y="-4.939394531250002"/>
                  <y:Fill color="#F2F0D8" transparent="false"/>
                  <y:BorderStyle color="#000000" type="line" width="1.0"/>
                  <y:NodeLabel alignment="right" autoSizePolicy="node_width" backgroundColor="#B7B69E" borderDistance="0.0" fontFamily="Dialog" fontSize="15" fontStyle="plain" hasLineColor="false" height="22.37646484375" modelName="internal" modelPosition="t" textColor="#000000" visible="true" width="318.0" x="0.0" y="0.0">Inverse Kinematics Renderer</y:NodeLabel>
                  <y:Shape type="rectangle"/>
                  <y:DropShadow color="#D2D2D2" offsetX="4" offsetY="4"/>
                  <y:State closed="true" innerGraphDisplayEnabled="false"/>
                  <y:Insets bottom="15" bottomF="15.0" left="15" leftF="15.0" right="15" rightF="15.0" top="15" topF="15.0"/>
                  <y:BorderInsets bottom="0" bottomF="0.0" left="0" leftF="0.0" right="0" rightF="0.0" top="0" topF="0.0"/>
                </y:GroupNode>
              </y:Realizers>
            </y:ProxyAutoBoundsNode>
          </data>
          <graph edgedefault="directed" id="n3::n3:">
            <node id="n3::n3::n0">
              <data key="d4"><![CDATA[https://svn.csail.mit.edu/envoy/software/collection/arm-renderer/src/ik_renderer/ik-frames.h]]></data>
              <data key="d5"/>
              <data key="d6">
                <y:ShapeNode>
                  <y:Geometry height="30.0" width="144.7734375" x="161.54843749999998" y="32.4370703125"/>
                  <y:Fill color="#FFCC00" transparent="false"/>
                  <y:BorderStyle color="#000000" type="line" width="1.0"/>
                  <y:NodeLabel alignment="center" autoSizePolicy="content" fontFamily="Dialog" fontSize="12" fontStyle="plain" hasBackgroundColor="false" hasLineColor="false" height="18.701171875" modelName="internal" modelPosition="c" textColor="#000000" visible="true" width="56.013671875" x="44.3798828125" y="5.6494140625">ik_frames</y:NodeLabel>
                  <y:Shape type="rectangle"/>
                </y:ShapeNode>
              </data>
            </node>
            <node id="n3::n3::n1">
              <data key="d4"><![CDATA[https://svn.csail.mit.edu/envoy/software/collection/arm-renderer/src/ik_renderer/ik-kinematic-decoupling.h]]></data>
              <data key="d5"/>
              <data key="d6">
                <y:ShapeNode>
                  <y:Geometry height="30.0" width="144.7734375" x="161.54843749999998" y="65.9970703125"/>
                  <y:Fill color="#FFCC00" transparent="false"/>
                  <y:BorderStyle color="#000000" type="line" width="1.0"/>
                  <y:NodeLabel alignment="center" autoSizePolicy="content" fontFamily="Dialog" fontSize="12" fontStyle="plain" hasBackgroundColor="false" hasLineColor="false" height="18.701171875" modelName="internal" modelPosition="c" textColor="#000000" visible="true" width="129.390625" x="7.69140625" y="5.6494140625">ik-kinematic-decoupling</y:NodeLabel>
                  <y:Shape type="rectangle"/>
                </y:ShapeNode>
              </data>
            </node>
            <node id="n3::n3::n2">
              <data key="d4"><![CDATA[https://svn.csail.mit.edu/envoy/software/collection/arm-renderer/src/ik_renderer/ik-renderer.h]]></data>
              <data key="d5"/>
              <data key="d6">
                <y:ShapeNode>
                  <y:Geometry height="30.0" width="112.00000000000006" x="-12.45156250000008" y="32.4370703125"/>
                  <y:Fill color="#FFCC00" transparent="false"/>
                  <y:BorderStyle color="#000000" type="line" width="1.0"/>
                  <y:NodeLabel alignment="center" autoSizePolicy="content" fontFamily="Dialog" fontSize="12" fontStyle="plain" hasBackgroundColor="false" hasLineColor="false" height="18.701171875" modelName="internal" modelPosition="c" textColor="#000000" visible="true" width="64.697265625" x="23.651367187500057" y="5.6494140625">ik_renderer</y:NodeLabel>
                  <y:Shape type="rectangle"/>
                </y:ShapeNode>
              </data>
            </node>
            <edge id="n3::n3::e0" source="n3::n3::n0" target="n3::n3::n2">
              <data key="d9"/>
              <data key="d10">
                <y:PolyLineEdge>
                  <y:Path sx="0.0" sy="0.0" tx="0.0" ty="0.0"/>
                  <y:LineStyle color="#000000" type="line" width="1.0"/>
                  <y:Arrows source="standard" target="standard"/>
                  <y:BendStyle smoothed="false"/>
                </y:PolyLineEdge>
              </data>
            </edge>
            <edge id="n3::n3::e1" source="n3::n3::n2" target="n3::n3::n1">
              <data key="d9"/>
              <data key="d10">
                <y:PolyLineEdge>
                  <y:Path sx="0.0" sy="0.0" tx="0.0" ty="0.0">
                    <y:Point x="43.54843749999995" y="80.9970703125"/>
                  </y:Path>
                  <y:LineStyle color="#000000" type="line" width="1.0"/>
                  <y:Arrows source="standard" target="standard"/>
                  <y:BendStyle smoothed="false"/>
                </y:PolyLineEdge>
              </data>
            </edge>
          </graph>
        </node>
        <node id="n3::n4" yfiles.foldertype="group">
          <data key="d4"/>
          <data key="d5"/>
          <data key="d6">
            <y:ProxyAutoBoundsNode>
              <y:Realizers active="0">
                <y:GroupNode>
                  <y:Geometry height="125.77373495312497" width="175.0920605624999" x="394.9079394375001" y="219.432373046875"/>
                  <y:Fill color="#F2F0D8" transparent="false"/>
                  <y:BorderStyle color="#000000" type="line" width="1.0"/>
                  <y:NodeLabel alignment="right" autoSizePolicy="node_width" backgroundColor="#3366FF" borderDistance="0.0" fontFamily="Dialog" fontSize="15" fontStyle="plain" hasLineColor="false" height="22.37646484375" modelName="internal" modelPosition="t" textColor="#000000" visible="true" width="175.0920605624999" x="0.0" y="0.0">LCM</y:NodeLabel>
                  <y:Shape type="rectangle"/>
                  <y:DropShadow color="#D2D2D2" offsetX="4" offsetY="4"/>
                  <y:State closed="false" innerGraphDisplayEnabled="false"/>
                  <y:Insets bottom="15" bottomF="15.0" left="15" leftF="15.0" right="15" rightF="15.0" top="15" topF="15.0"/>
                  <y:BorderInsets bottom="0" bottomF="0.0" left="2" leftF="2.09206056249991" right="0" rightF="0.0" top="0" topF="0.0"/>
                </y:GroupNode>
                <y:GroupNode>
                  <y:Geometry height="50.0" width="50.0" x="377.0" y="-50.37939453125"/>
                  <y:Fill color="#F2F0D8" transparent="false"/>
                  <y:BorderStyle color="#000000" type="line" width="1.0"/>
                  <y:NodeLabel alignment="right" autoSizePolicy="node_width" backgroundColor="#B7B69E" borderDistance="0.0" fontFamily="Dialog" fontSize="15" fontStyle="plain" hasLineColor="false" height="22.37646484375" modelName="internal" modelPosition="t" textColor="#000000" visible="true" width="50.0" x="0.0" y="0.0">3</y:NodeLabel>
                  <y:Shape type="rectangle"/>
                  <y:DropShadow color="#D2D2D2" offsetX="4" offsetY="4"/>
                  <y:State closed="false" innerGraphDisplayEnabled="false"/>
                  <y:Insets bottom="15" bottomF="15.0" left="15" leftF="15.0" right="15" rightF="15.0" top="15" topF="15.0"/>
                  <y:BorderInsets bottom="0" bottomF="0.0" left="0" leftF="0.0" right="0" rightF="0.0" top="0" topF="0.0"/>
                </y:GroupNode>
              </y:Realizers>
            </y:ProxyAutoBoundsNode>
          </data>
          <graph edgedefault="directed" id="n3::n4:">
            <node id="n3::n4::n0">
              <data key="d4"><![CDATA[https://svn.csail.mit.edu/envoy/software/collection/arm-renderer/lcmtypes/dynamixel_cmd_list_t.lcm]]></data>
              <data key="d5"/>
              <data key="d6">
                <y:ShapeNode>
                  <y:Geometry height="30.0" width="143.0" x="412.0" y="256.808837890625"/>
                  <y:Fill color="#00FFFF" transparent="false"/>
                  <y:BorderStyle color="#000000" type="line" width="1.0"/>
                  <y:NodeLabel alignment="center" autoSizePolicy="content" fontFamily="Dialog" fontSize="12" fontStyle="plain" hasBackgroundColor="false" hasLineColor="false" height="18.701171875" modelName="internal" modelPosition="c" textColor="#000000" visible="true" width="118.71484375" x="12.142578125" y="5.6494140625">dynamixel_cmd_list_t</y:NodeLabel>
                  <y:Shape type="rectangle"/>
                </y:ShapeNode>
              </data>
            </node>
            <node id="n3::n4::n1">
              <data key="d4"><![CDATA[https://svn.csail.mit.edu/envoy/software/collection/arm-renderer/lcmtypes/dynamixel_status_list_t.lcm]]></data>
              <data key="d5"/>
              <data key="d6">
                <y:ShapeNode>
                  <y:Geometry height="30.0" width="143.0" x="412.0" y="300.206108"/>
                  <y:Fill color="#800080" transparent="false"/>
                  <y:BorderStyle color="#000000" type="line" width="1.0"/>
                  <y:NodeLabel alignment="center" autoSizePolicy="content" fontFamily="Dialog" fontSize="12" fontStyle="plain" hasBackgroundColor="false" hasLineColor="false" height="18.701171875" modelName="internal" modelPosition="c" textColor="#000000" visible="true" width="128.060546875" x="7.4697265625" y="5.6494140625">dynamixel_status_list_t</y:NodeLabel>
                  <y:Shape type="rectangle"/>
                </y:ShapeNode>
              </data>
            </node>
          </graph>
        </node>
        <node id="n3::n5">
          <data key="d4"><![CDATA[https://svn.csail.mit.edu/envoy/software/collection/arm-renderer/src/robot-arm-frame-server.h]]></data>
          <data key="d5"/>
          <data key="d6">
            <y:ShapeNode>
              <y:Geometry height="30.0" width="318.0" x="-108.2265625" y="316.94329999999997"/>
              <y:Fill color="#FFCC00" transparent="false"/>
              <y:BorderStyle color="#000000" type="line" width="1.0"/>
              <y:NodeLabel alignment="center" autoSizePolicy="content" fontFamily="Dialog" fontSize="12" fontStyle="plain" hasBackgroundColor="false" hasLineColor="false" height="18.701171875" modelName="internal" modelPosition="c" textColor="#000000" visible="true" width="136.052734375" x="90.9736328125" y="5.6494140625">robot_arm_frame_server</y:NodeLabel>
              <y:Shape type="rectangle"/>
            </y:ShapeNode>
          </data>
        </node>
        <node id="n3::n6">
          <data key="d4"><![CDATA[https://svn.csail.mit.edu/envoy/software/collection/arm-renderer/src/arm-renderer.cfg]]></data>
          <data key="d5"/>
          <data key="d6">
            <y:ShapeNode>
              <y:Geometry height="30.0" width="318.0" x="-108.2265625" y="-90.05670000000003"/>
              <y:Fill color="#99CC00" transparent="false"/>
              <y:BorderStyle color="#000000" type="line" width="1.0"/>
              <y:NodeLabel alignment="center" autoSizePolicy="content" fontFamily="Dialog" fontSize="12" fontStyle="plain" hasBackgroundColor="false" hasLineColor="false" height="18.701171875" modelName="internal" modelPosition="c" textColor="#000000" visible="true" width="192.07421875" x="62.962890625" y="5.6494140625">arm-renderer.cfg (configuration file)</y:NodeLabel>
              <y:Shape type="rectangle"/>
            </y:ShapeNode>
          </data>
        </node>
        <node id="n3::n7">
          <data key="d4"><![CDATA[https://svn.csail.mit.edu/envoy/software/collection/arm-renderer/src/main.c]]></data>
          <data key="d5"/>
          <data key="d6">
            <y:ShapeNode>
              <y:Geometry height="30.0" width="96.0" x="-223.91249999999997" y="-90.05670000000003"/>
              <y:Fill color="#FFCC00" transparent="false"/>
              <y:BorderStyle color="#000000" type="line" width="1.0"/>
              <y:NodeLabel alignment="center" autoSizePolicy="content" fontFamily="Dialog" fontSize="12" fontStyle="plain" hasBackgroundColor="false" hasLineColor="false" height="18.701171875" modelName="internal" modelPosition="c" textColor="#000000" visible="true" width="30.009765625" x="32.9951171875" y="5.6494140625">main</y:NodeLabel>
              <y:Shape type="rectangle"/>
            </y:ShapeNode>
          </data>
        </node>
        <node id="n3::n8">
          <data key="d4"><![CDATA[https://svn.csail.mit.edu/envoy/software/collection/arm-renderer/src/robot-arm-renderer.h]]></data>
          <data key="d5"/>
          <data key="d6">
            <y:ShapeNode>
              <y:Geometry height="30.0" width="318.0" x="-108.2265625" y="-49.13232421875"/>
              <y:Fill color="#99CC00" transparent="false"/>
              <y:BorderStyle color="#000000" type="line" width="1.0"/>
              <y:NodeLabel alignment="center" autoSizePolicy="content" fontFamily="Dialog" fontSize="12" fontStyle="plain" hasBackgroundColor="false" hasLineColor="false" height="18.701171875" modelName="internal" modelPosition="c" textColor="#000000" visible="true" width="115.375" x="101.3125" y="5.6494140625">robot-arm-renderer.h</y:NodeLabel>
              <y:Shape type="rectangle"/>
            </y:ShapeNode>
          </data>
        </node>
      </graph>
    </node>
    <node id="n4">
      <data key="d5"/>
      <data key="d6">
        <y:ShapeNode>
          <y:Geometry height="52.5" width="72.0" x="1744.3149333333333" y="153.15801087247013"/>
          <y:Fill color="#3366FF" transparent="false"/>
          <y:BorderStyle color="#000000" type="line" width="1.0"/>
          <y:NodeLabel alignment="center" autoSizePolicy="content" fontFamily="Dialog" fontSize="12" fontStyle="plain" hasBackgroundColor="false" hasLineColor="false" height="18.701171875" modelName="internal" modelPosition="c" textColor="#000000" visible="true" width="71.3359375" x="0.33203125" y="16.8994140625">arm (servos)</y:NodeLabel>
          <y:Shape type="rectangle"/>
        </y:ShapeNode>
      </data>
    </node>
    <edge id="n1::e0" source="n1::n0" target="n1::n1">
      <data key="d9"/>
      <data key="d10">
        <y:PolyLineEdge>
          <y:Path sx="0.0" sy="0.0" tx="0.0" ty="0.0"/>
          <y:LineStyle color="#000000" type="line" width="1.0"/>
          <y:Arrows source="standard" target="standard"/>
          <y:BendStyle smoothed="false"/>
        </y:PolyLineEdge>
      </data>
    </edge>
    <edge id="n1::e1" source="n1::n1" target="n1::n2">
      <data key="d9"/>
      <data key="d10">
        <y:PolyLineEdge>
          <y:Path sx="0.0" sy="0.0" tx="0.0" ty="0.0"/>
          <y:LineStyle color="#000000" type="line" width="1.0"/>
          <y:Arrows source="standard" target="standard"/>
          <y:BendStyle smoothed="false"/>
        </y:PolyLineEdge>
      </data>
    </edge>
    <edge id="n2::e0" source="n2::n2" target="n2::n1">
      <data key="d9"/>
      <data key="d10">
        <y:PolyLineEdge>
          <y:Path sx="0.0" sy="0.0" tx="0.0" ty="0.0"/>
          <y:LineStyle color="#000000" type="line" width="1.0"/>
          <y:Arrows source="standard" target="standard"/>
          <y:BendStyle smoothed="false"/>
        </y:PolyLineEdge>
      </data>
    </edge>
    <edge id="n2::e1" source="n2::n1" target="n2::n3">
      <data key="d9"/>
      <data key="d10">
        <y:PolyLineEdge>
          <y:Path sx="0.0" sy="0.0" tx="0.0" ty="0.0"/>
          <y:LineStyle color="#000000" type="line" width="1.0"/>
          <y:Arrows source="standard" target="standard"/>
          <y:BendStyle smoothed="false"/>
        </y:PolyLineEdge>
      </data>
    </edge>
    <edge id="e0" source="n2::n3" target="n1::n0">
      <data key="d9"/>
      <data key="d10">
        <y:PolyLineEdge>
          <y:Path sx="0.0" sy="0.0" tx="0.0" ty="0.0"/>
          <y:LineStyle color="#000000" type="dashed" width="2.0"/>
          <y:Arrows source="standard" target="standard"/>
          <y:EdgeLabel alignment="center" distance="2.0" fontFamily="Dialog" fontSize="12" fontStyle="plain" hasBackgroundColor="false" hasLineColor="false" height="18.701171875" modelName="six_pos" modelPosition="tail" preferredPlacement="anywhere" ratio="0.5" textColor="#000000" visible="true" width="105.994140625" x="74.84292968749992" y="2.0000061117279415">USB - UART (TTY)</y:EdgeLabel>
          <y:BendStyle smoothed="false"/>
        </y:PolyLineEdge>
      </data>
    </edge>
    <edge id="e1" source="n1::n2" target="n4">
      <data key="d9"/>
      <data key="d10">
        <y:PolyLineEdge>
          <y:Path sx="41.49999999999932" sy="0.0" tx="0.0" ty="0.0"/>
          <y:LineStyle color="#000000" type="dashed" width="2.0"/>
          <y:Arrows source="standard" target="standard"/>
          <y:EdgeLabel alignment="center" distance="2.0" fontFamily="Dialog" fontSize="12" fontStyle="plain" hasBackgroundColor="false" hasLineColor="false" height="18.701171875" modelName="six_pos" modelPosition="tail" preferredPlacement="anywhere" ratio="0.5" textColor="#000000" visible="true" width="40.69140625" x="43.970142447916714" y="2.9853626012530583">RS485</y:EdgeLabel>
          <y:BendStyle smoothed="false"/>
        </y:PolyLineEdge>
      </data>
    </edge>
    <edge id="e2" source="n3::n4" target="n2::n0">
      <data key="d9"/>
      <data key="d10">
        <y:PolyLineEdge>
          <y:Path sx="87.52554673998759" sy="-11.114983602967238" tx="-54.00737479325005" ty="-11.114983602967243"/>
          <y:LineStyle color="#000000" type="dashed" width="1.0"/>
          <y:Arrows source="standard" target="standard"/>
          <y:BendStyle smoothed="false"/>
        </y:PolyLineEdge>
      </data>
    </edge>
    <edge id="n3::e0" source="n3::n4" target="n3::n5">
      <data key="d9"/>
      <data key="d10">
        <y:PolyLineEdge>
          <y:Path sx="-80.15531423075015" sy="48.75546347656251" tx="159.0" ty="0.0"/>
          <y:LineStyle color="#800080" type="line" width="1.0"/>
          <y:Arrows source="none" target="standard"/>
          <y:EdgeLabel alignment="center" distance="2.0" fontFamily="Dialog" fontSize="12" fontStyle="plain" hasBackgroundColor="false" hasLineColor="false" height="18.701171875" modelName="six_pos" modelPosition="stail" preferredPlacement="anywhere" ratio="0.5" textColor="#000000" visible="true" width="128.060546875" x="-138.19676637304678" y="2.6234835739741698">dynamixel_status_list_t</y:EdgeLabel>
          <y:BendStyle smoothed="false"/>
        </y:PolyLineEdge>
      </data>
    </edge>
    <edge id="n3::e1" source="n3::n5" target="n3::n1">
      <data key="d9"/>
      <data key="d10">
        <y:PolyLineEdge>
          <y:Path sx="0.0" sy="0.0" tx="0.0" ty="-9.423535156249955">
            <y:Point x="50.7734375" y="204.23761938133345"/>
          </y:Path>
          <y:LineStyle color="#000000" type="dashed" width="1.0"/>
          <y:Arrows source="none" target="standard"/>
          <y:EdgeLabel alignment="center" distance="2.0" fontFamily="Dialog" fontSize="12" fontStyle="plain" hasBackgroundColor="false" hasLineColor="false" height="18.701171875" modelName="six_pos" modelPosition="tail" preferredPlacement="anywhere" ratio="0.5" textColor="#000000" visible="true" width="151.369140625" x="2.0" y="-48.49165700855207">BotFrames (LCM Message)</y:EdgeLabel>
          <y:BendStyle smoothed="false"/>
        </y:PolyLineEdge>
      </data>
    </edge>
    <edge id="n3::e2" source="n3::n7" target="n3::n3">
      <data key="d9"/>
      <data key="d10">
        <y:PolyLineEdge>
          <y:Path sx="0.0" sy="0.0" tx="-5.288274801132502" ty="-10.174438046700889">
            <y:Point x="-175.91249999999997" y="9.886167422049109"/>
          </y:Path>
          <y:LineStyle color="#000000" type="line" width="1.0"/>
          <y:Arrows source="none" target="standard"/>
          <y:BendStyle smoothed="false"/>
        </y:PolyLineEdge>
      </data>
    </edge>
    <edge id="n3::e3" source="n3::n7" target="n3::n2">
      <data key="d9"/>
      <data key="d10">
        <y:PolyLineEdge>
          <y:Path sx="0.0" sy="0.0" tx="0.0" ty="0.0">
            <y:Point x="-175.91249999999997" y="100.528837890625"/>
          </y:Path>
          <y:LineStyle color="#000000" type="line" width="1.0"/>
          <y:Arrows source="none" target="standard"/>
          <y:BendStyle smoothed="false"/>
        </y:PolyLineEdge>
      </data>
    </edge>
    <edge id="n3::e4" source="n3::n7" target="n3::n1">
      <data key="d9"/>
      <data key="d10">
        <y:PolyLineEdge>
          <y:Path sx="0.0" sy="0.0" tx="0.0" ty="0.0">
            <y:Point x="-175.91249999999997" y="213.6611545375834"/>
          </y:Path>
          <y:LineStyle color="#000000" type="line" width="1.0"/>
          <y:Arrows source="none" target="standard"/>
          <y:BendStyle smoothed="false"/>
        </y:PolyLineEdge>
      </data>
    </edge>
    <edge id="n3::e5" source="n3::n4" target="n3::n2">
      <data key="d9"/>
      <data key="d10">
        <y:PolyLineEdge>
          <y:Path sx="-61.29812061193991" sy="-63.7438396937913" tx="85.50242238503978" ty="-3.370135194492633">
            <y:Point x="421.15584910681014" y="97.15870269613237"/>
          </y:Path>
          <y:LineStyle color="#800080" type="line" width="1.0"/>
          <y:Arrows source="none" target="standard"/>
          <y:EdgeLabel alignment="center" distance="2.0" fontFamily="Dialog" fontSize="12" fontStyle="plain" hasBackgroundColor="false" hasLineColor="false" height="18.701171875" modelName="six_pos" modelPosition="ttail" preferredPlacement="anywhere" ratio="0.5" textColor="#000000" visible="true" width="128.060546875" x="-201.25741577148438" y="-119.41669098062545">dynamixel_status_list_t</y:EdgeLabel>
          <y:BendStyle smoothed="false"/>
        </y:PolyLineEdge>
      </data>
    </edge>
    <edge id="n3::e6" source="n3::n2" target="n3::n4">
      <data key="d9"/>
      <data key="d10">
        <y:PolyLineEdge>
          <y:Path sx="98.53416059627313" sy="-23.40800989234205" tx="-34.90680171875033" ty="-2.761327808770602">
            <y:Point x="447.5471679999997" y="77.12082799828295"/>
          </y:Path>
          <y:LineStyle color="#00CCFF" type="line" width="1.0"/>
          <y:Arrows source="none" target="standard"/>
          <y:EdgeLabel alignment="center" distance="2.0" fontFamily="Dialog" fontSize="12" fontStyle="plain" hasBackgroundColor="false" hasLineColor="false" height="18.701171875" modelName="six_pos" modelPosition="tail" preferredPlacement="anywhere" ratio="0.5" textColor="#000000" visible="true" width="118.71484375" x="64.08709108007798" y="2.000001277091542">dynamixel_cmd_list_t</y:EdgeLabel>
          <y:BendStyle smoothed="false"/>
        </y:PolyLineEdge>
      </data>
    </edge>
    <edge id="n3::e7" source="n3::n4" target="n3::n3">
      <data key="d9"/>
      <data key="d10">
        <y:PolyLineEdge>
          <y:Path sx="0.0" sy="0.0" tx="129.31808540933145" ty="8.739258287618206">
            <y:Point x="482.45396971875005" y="28.799863756368204"/>
          </y:Path>
          <y:LineStyle color="#800080" type="line" width="1.0"/>
          <y:Arrows source="none" target="standard"/>
          <y:EdgeLabel alignment="center" distance="2.0" fontFamily="Dialog" fontSize="12" fontStyle="plain" hasBackgroundColor="false" hasLineColor="false" height="18.701171875" modelName="six_pos" modelPosition="ttail" preferredPlacement="anywhere" ratio="0.5" textColor="#000000" visible="true" width="128.060546875" x="-262.5555419921875" y="-188.6325092905068">dynamixel_status_list_t</y:EdgeLabel>
          <y:BendStyle smoothed="false"/>
        </y:PolyLineEdge>
      </data>
    </edge>
    <edge id="n3::e8" source="n3::n3" target="n3::n2">
      <data key="d8"><![CDATA[https://svn.csail.mit.edu/envoy/software/collection/arm-renderer/lcmtypes/arm_renderer_ik_list_t.lcm]]></data>
      <data key="d9"/>
      <data key="d10">
        <y:PolyLineEdge>
          <y:Path sx="0.0" sy="0.0" tx="0.0" ty="0.0">
            <y:Point x="50.7734375" y="100.528837890625"/>
          </y:Path>
          <y:LineStyle color="#000000" type="dashed" width="1.0"/>
          <y:Arrows source="none" target="standard"/>
          <y:EdgeLabel alignment="center" distance="2.0" fontFamily="Dialog" fontSize="12" fontStyle="plain" hasBackgroundColor="false" hasLineColor="false" height="18.701171875" modelName="six_pos" modelPosition="stail" preferredPlacement="anywhere" ratio="0.5" textColor="#000000" visible="true" width="145.380859375" x="2.0" y="5.883531646728514">arm_renderer_ik_list_t.lcm</y:EdgeLabel>
          <y:BendStyle smoothed="false"/>
        </y:PolyLineEdge>
      </data>
    </edge>
    <edge id="n2::e2" source="n2::n0" target="n2::n2">
      <data key="d9"/>
      <data key="d10">
        <y:PolyLineEdge>
          <y:Path sx="-36.58603028124992" sy="-16.2013278087706" tx="-11.980000000000018" ty="12.189901842196832">
            <y:Point x="677.96" y="110.59791271466696"/>
          </y:Path>
          <y:LineStyle color="#00CCFF" type="line" width="1.0"/>
          <y:Arrows source="none" target="standard"/>
          <y:EdgeLabel alignment="center" distance="2.0" fontFamily="Dialog" fontSize="12" fontStyle="plain" hasBackgroundColor="false" hasLineColor="false" height="18.701171875" modelName="six_pos" modelPosition="tail" preferredPlacement="anywhere" ratio="0.5" textColor="#000000" visible="true" width="118.71484375" x="9.350056152343768" y="-106.85640247087991">dynamixel_cmd_list_t</y:EdgeLabel>
          <y:BendStyle smoothed="false"/>
        </y:PolyLineEdge>
      </data>
    </edge>
    <edge id="n2::e3" source="n2::n2" target="n2::n0">
      <data key="d9"/>
      <data key="d10">
        <y:PolyLineEdge>
          <y:Path sx="-9.497265624999955" sy="-7.680000000000007" tx="-58.98603028125001" ty="-2.761327808770602">
            <y:Point x="655.56" y="90.72801087247012"/>
          </y:Path>
          <y:LineStyle color="#800080" type="line" width="1.0"/>
          <y:Arrows source="none" target="standard"/>
          <y:EdgeLabel alignment="center" distance="2.0" fontFamily="Dialog" fontSize="12" fontStyle="plain" hasBackgroundColor="false" hasLineColor="false" height="18.701171875" modelName="six_pos" modelPosition="shead" preferredPlacement="anywhere" ratio="0.5" textColor="#000000" visible="true" width="128.060546875" x="-138.154541015625" y="-20.701173087490815">dynamixel_status_list_t</y:EdgeLabel>
          <y:BendStyle smoothed="false"/>
        </y:PolyLineEdge>
      </data>
    </edge>
    <edge id="n0::e0" source="n0::n0" target="n0::n1">
      <data key="d9"/>
      <data key="d10">
        <y:PolyLineEdge>
          <y:Path sx="-34.546030281249955" sy="12.189901842196832" tx="-22.03464285714289" ty="12.189901842196832"/>
          <y:LineStyle color="#00CCFF" type="line" width="1.0"/>
          <y:Arrows source="none" target="standard"/>
          <y:EdgeLabel alignment="center" distance="2.0" fontFamily="Dialog" fontSize="12" fontStyle="plain" hasBackgroundColor="false" hasLineColor="false" height="18.701171875" modelName="six_pos" modelPosition="tail" preferredPlacement="anywhere" ratio="0.5" textColor="#000000" visible="true" width="118.71484375" x="10.616159675781205" y="1.9999983063152058">dynamixel_cmd_list_t</y:EdgeLabel>
          <y:BendStyle smoothed="false"/>
        </y:PolyLineEdge>
      </data>
    </edge>
    <edge id="n0::e1" source="n0::n1" target="n0::n0">
      <data key="d9"/>
      <data key="d10">
        <y:PolyLineEdge>
          <y:Path sx="-17.468184988839198" sy="-7.680000000000007" tx="-50.546030281249955" ty="-7.680000000000007"/>
          <y:LineStyle color="#800080" type="line" width="1.0"/>
          <y:Arrows source="none" target="standard"/>
          <y:EdgeLabel alignment="center" distance="2.0" fontFamily="Dialog" fontSize="12" fontStyle="plain" hasBackgroundColor="false" hasLineColor="false" height="18.701171875" modelName="six_pos" modelPosition="shead" preferredPlacement="anywhere" ratio="0.5" textColor="#000000" visible="true" width="128.060546875" x="-134.00182128125005" y="-20.701171846428508">dynamixel_status_list_t</y:EdgeLabel>
          <y:BendStyle smoothed="false"/>
        </y:PolyLineEdge>
      </data>
    </edge>
  </graph>
  <data key="d0">
    <y:Resources/>
  </data>
</graphml>
